id;status;name;code;description;created_by;created_on;last_modified_by;last_modified_on;is_deleted
1;Rustic;Prairie;wireless;Wyoming Dale;Rubber;2024-07-19T23:01:17;Applications;2024-07-20T03:57:40;true
2;Facilitator;Fish Administrator;Plastic Usability Senior;sky intranet;Concrete Computer Loan;2024-07-20T09:48:59;repurpose;2024-07-19T18:36:34;false
3;deposit rich;China time-frame;program;secondary Optimization portal;Estates XSS Small;2024-07-20T09:39:13;Berkshire SMTP;2024-07-19T19:40:36;false
4;Indiana incremental bypass;wireless;markets Frozen mobile;Self-enabling;XML implementation;2024-07-19T18:17:52;black management;2024-07-20T01:05:20;false
5;navigate;Chicken connecting seize;Canada Frozen Forward;pixel drive;cyan indexing Table;2024-07-19T15:30:10;hack Rapids;2024-07-20T01:16:05;true
6;Beauty HTTP;deposit Configurable Producer;Fundamental;Orchestrator Berkshire Bridge;Chips deposit;2024-07-20T07:18:41;Plastic Concrete;2024-07-19T13:10:28;false
7;productize Hat auxiliary;Berkshire;azure;Account indigo;matrix;2024-07-19T19:13:50;Michigan Libyan;2024-07-19T23:29:58;false
8;Lights;Andorra;orange Colorado;Rubber Dynamic;Cambridgeshire Account Bike;2024-07-19T20:36:58;Kids indexing;2024-07-20T00:40:36;false
9;1080p;lime technologies;payment South;Indiana Lesotho;global intelligence Ball;2024-07-19T14:14:23;protocol Hills;2024-07-19T16:27:33;true
10;Chilean Guinea Account;Computer online;Oregon;Planner;Steel open Assurance;2024-07-19T11:25:29;global;2024-07-19T13:48:31;false
