{
  "name": "CommonValue",
  "fields": [
    {
      "fieldName": "name",
      "fieldType": "String",
      "fieldValidateRules": ["required"]
    },
    {
      "fieldName": "code",
      "fieldType": "String",
      "fieldValidateRules": ["required", "unique"]
    },
    {
      "fieldName": "description",
      "fieldType": "String"
    },
    {
      "fieldName": "order",
      "fieldType": "Long"
    },
    {
      "fieldName": "dataType",
      "fieldType": "String",
      "fieldValidateRules": ["required"]
    },
    {
      "fieldName": "dataString",
      "fieldType": "String",
      "fieldValidateRules": ["required"]
    },
    {
      "fieldName": "status",
      "fieldType": "String"
    },
    {
      "fieldName": "dataShort",
      "fieldType": "String"
    },
    {
      "fieldName": "createdBy",
      "fieldType": "String"
    },
    {
      "fieldName": "createdOn",
      "fieldType": "Instant"
    },
    {
      "fieldName": "lastModifiedBy",
      "fieldType": "String"
    },
    {
      "fieldName": "lastModifiedOn",
      "fieldType": "Instant"
    },
    {
      "fieldName": "isDeleted",
      "fieldType": "Boolean"
    }
  ],
  "relationships": [
    {
      "relationshipType": "many-to-one",
      "otherEntityName": "commonCode",
      "otherEntityRelationshipName": "commonValue",
      "relationshipName": "parent",
      "otherEntityField": "code"
    }
  ],
  "entityTableName": "common_value",
  "dto": "mapstruct",
  "pagination": "infinite-scroll",
  "service": "serviceClass",
  "jpaMetamodelFiltering": true,
  "fluentMethods": true,
  "readOnly": false,
  "embedded": false,
  "applications": "*",
  "skipClient": true,
  "changelogDate": "20240720104813"
}
