{
  "name": "Meter",
  "fields": [
    {
      "fieldName": "modemName",
      "fieldType": "String"
    },
    {
      "fieldName": "modelName",
      "fieldType": "String"
    },
    {
      "fieldName": "meterTypeName",
      "fieldType": "String"
    },
    {
      "fieldName": "currentName",
      "fieldType": "String"
    },
    {
      "fieldName": "voltageName",
      "fieldType": "String"
    },
    {
      "fieldName": "installationOn",
      "fieldType": "Instant"
    },
    {
      "fieldName": "warrantyOn",
      "fieldType": "Instant"
    },
    {
      "fieldName": "number",
      "fieldType": "String"
    },
    {
      "fieldName": "name",
      "fieldType": "String"
    },
    {
      "fieldName": "address",
      "fieldType": "String"
    },
    {
      "fieldName": "ctRatio",
      "fieldType": "String"
    },
    {
      "fieldName": "vtRatio",
      "fieldType": "String"
    },
    {
      "fieldName": "deviceAddress",
      "fieldType": "String"
    },
    {
      "fieldName": "status",
      "fieldType": "String"
    },
    {
      "fieldName": "rate1",
      "fieldType": "String"
    },
    {
      "fieldName": "rate2",
      "fieldType": "String"
    },
    {
      "fieldName": "rate3",
      "fieldType": "String"
    },
    {
      "fieldName": "createdBy",
      "fieldType": "String"
    },
    {
      "fieldName": "createdOn",
      "fieldType": "Instant"
    },
    {
      "fieldName": "lastModifiedBy",
      "fieldType": "String"
    },
    {
      "fieldName": "lastModifiedOn",
      "fieldType": "Instant"
    }
  ],
  "relationships": [
    {
      "relationshipType": "many-to-one",
      "otherEntityName": "modem",
      "otherEntityRelationshipName": "meter",
      "relationshipName": "modem"
    },
    {
      "relationshipType": "many-to-one",
      "otherEntityName": "commonValue",
      "otherEntityRelationshipName": "meter",
      "relationshipName": "meterType"
    },
    {
      "relationshipType": "many-to-one",
      "otherEntityName": "commonValue",
      "otherEntityRelationshipName": "meter",
      "relationshipName": "current"
    },
    {
      "relationshipType": "many-to-one",
      "otherEntityName": "commonValue",
      "otherEntityRelationshipName": "meter",
      "relationshipName": "voltage"
    },
    {
      "relationshipType": "many-to-one",
      "otherEntityName": "commonValue",
      "otherEntityRelationshipName": "meter",
      "relationshipName": "model"
    }
  ],
  "entityTableName": "meter",
  "dto": "mapstruct",
  "pagination": "infinite-scroll",
  "service": "serviceClass",
  "jpaMetamodelFiltering": true,
  "fluentMethods": true,
  "readOnly": false,
  "embedded": false,
  "applications": "*",
  "skipClient": true,
  "changelogDate": "20240720104815"
}
